\relax 
\catcode `"\active 
\select@language{russian}
\@writefile{toc}{\select@language{russian}}
\@writefile{lof}{\select@language{russian}}
\@writefile{lot}{\select@language{russian}}
\newlabel{eq:mrmc}{{1}{1}}
\newlabel{eq:mrm}{{2}{1}}
\@writefile{toc}{\contentsline {section}{\numberline {1}\IeC {\CYRP }\IeC {\cyrr }\IeC {\cyri }\IeC {\cyrm }\IeC {\cyre }\IeC {\cyrr }\IeC {\cyrery } \IeC {\cyrr }\IeC {\cyra }\IeC {\cyrb }\IeC {\cyro }\IeC {\cyrt }\IeC {\cyrery } \IeC {\cyrs } \IeC {\cyrf }\IeC {\cyro }\IeC {\cyrr }\IeC {\cyrm }\IeC {\cyru }\IeC {\cyrl }\IeC {\cyra }\IeC {\cyrm }\IeC {\cyri }}{1}}
\@writefile{toc}{\contentsline {subsection}{\numberline {1.1}\IeC {\CYRD }\IeC {\cyrr }\IeC {\cyro }\IeC {\cyrb }\IeC {\cyri }}{1}}
\@writefile{toc}{\contentsline {subsection}{\numberline {1.2}\IeC {\CYRS }\IeC {\cyrk }\IeC {\cyro }\IeC {\cyrb }\IeC {\cyrk }\IeC {\cyri }}{1}}
\@writefile{toc}{\contentsline {subsection}{\numberline {1.3}\IeC {\CYRS }\IeC {\cyrt }\IeC {\cyra }\IeC {\cyrn }\IeC {\cyrd }\IeC {\cyra }\IeC {\cyrr }\IeC {\cyrt }\IeC {\cyrn }\IeC {\cyrery }\IeC {\cyre } \IeC {\cyrf }\IeC {\cyru }\IeC {\cyrn }\IeC {\cyrk }\IeC {\cyrc }\IeC {\cyri }\IeC {\cyri }}{2}}
\@writefile{toc}{\contentsline {subsection}{\numberline {1.4}\IeC {\CYRS }\IeC {\cyrt }\IeC {\cyra }\IeC {\cyrn }\IeC {\cyrd }\IeC {\cyra }\IeC {\cyrr }\IeC {\cyrt }\IeC {\cyrn }\IeC {\cyrery }\IeC {\cyre } \IeC {\cyrf }\IeC {\cyru }\IeC {\cyrn }\IeC {\cyrk }\IeC {\cyrc }\IeC {\cyri }\IeC {\cyri }}{2}}
\@writefile{toc}{\contentsline {subsection}{\numberline {1.5}\IeC {\CYRS }\IeC {\cyri }\IeC {\cyrm }\IeC {\cyrv }\IeC {\cyro }\IeC {\cyrl }\IeC {\cyrery }}{2}}
\@writefile{toc}{\contentsline {subsection}{\numberline {1.6}\IeC {\CYRD }\IeC {\cyri }\IeC {\cyra }\IeC {\cyrk }\IeC {\cyrr }\IeC {\cyri }\IeC {\cyrt }\IeC {\cyri }\IeC {\cyrch }\IeC {\cyre }\IeC {\cyrs }\IeC {\cyrk }\IeC {\cyri }\IeC {\cyre } \IeC {\cyrz }\IeC {\cyrn }\IeC {\cyra }\IeC {\cyrk }\IeC {\cyri }}{2}}
\@writefile{toc}{\contentsline {subsection}{\numberline {1.7}\IeC {\CYRB }\IeC {\cyru }\IeC {\cyrk }\IeC {\cyrv }\IeC {\cyrery } \IeC {\cyrd }\IeC {\cyrr }\IeC {\cyru }\IeC {\cyrg }\IeC {\cyri }\IeC {\cyrh } \IeC {\cyra }\IeC {\cyrl }\IeC {\cyrf }\IeC {\cyra }\IeC {\cyrv }\IeC {\cyri }\IeC {\cyrt }\IeC {\cyro }\IeC {\cyrv }}{2}}
\@writefile{toc}{\contentsline {section}{\numberline {2}\IeC {\CYRF }\IeC {\cyro }\IeC {\cyrr }\IeC {\cyrm }\IeC {\cyru }\IeC {\cyrl }\IeC {\cyrery } \IeC {\cyrv } \IeC {\cyrn }\IeC {\cyre }\IeC {\cyrs }\IeC {\cyrk }\IeC {\cyro }\IeC {\cyrl }\IeC {\cyrsftsn }\IeC {\cyrk }\IeC {\cyro } \IeC {\cyrs }\IeC {\cyrt }\IeC {\cyrr }\IeC {\cyro }\IeC {\cyrk }}{2}}
\@writefile{toc}{\contentsline {subsection}{\numberline {2.1}\IeC {\CYRO }\IeC {\cyrch }\IeC {\cyre }\IeC {\cyrn }\IeC {\cyrsftsn } \IeC {\cyrd }\IeC {\cyrl }\IeC {\cyri }\IeC {\cyrn }\IeC {\cyrn }\IeC {\cyra }\IeC {\cyrya } \IeC {\cyrf }\IeC {\cyro }\IeC {\cyrr }\IeC {\cyrm }\IeC {\cyru }\IeC {\cyrl }\IeC {\cyra }}{2}}
\newlabel{eq:sum}{{{Sum}}{2}}
\@writefile{toc}{\contentsline {subsection}{\numberline {2.2}\IeC {\CYRN }\IeC {\cyre }\IeC {\cyrs }\IeC {\cyrk }\IeC {\cyro }\IeC {\cyrl }\IeC {\cyrsftsn }\IeC {\cyrk }\IeC {\cyro } \IeC {\cyrf }\IeC {\cyro }\IeC {\cyrr }\IeC {\cyrm }\IeC {\cyru }\IeC {\cyrl }}{3}}
\@writefile{toc}{\contentsline {subsection}{\numberline {2.3}\IeC {\CYRS }\IeC {\cyri }\IeC {\cyrs }\IeC {\cyrt }\IeC {\cyre }\IeC {\cyrm }\IeC {\cyrery } \IeC {\cyru }\IeC {\cyrr }\IeC {\cyra }\IeC {\cyrv }\IeC {\cyrn }\IeC {\cyre }\IeC {\cyrn }\IeC {\cyri }\IeC {\cyrishrt }}{3}}
\@writefile{toc}{\contentsline {section}{\numberline {3}\IeC {\CYRM }\IeC {\cyra }\IeC {\cyrt }\IeC {\cyrr }\IeC {\cyri }\IeC {\cyrc }\IeC {\cyrery }}{3}}
