\select@language {russian}
\contentsline {section}{\numberline {1}\IeC {\CYRN }\IeC {\cyra }\IeC {\cyrz }\IeC {\cyrv }\IeC {\cyra }\IeC {\cyrn }\IeC {\cyri }\IeC {\cyre } \IeC {\cyrr }\IeC {\cyra }\IeC {\cyrz }\IeC {\cyrd }\IeC {\cyre }\IeC {\cyrl }\IeC {\cyra }}{1}{section.1}
\contentsline {subsection}{\numberline {1.1}\IeC {\CYRN }\IeC {\cyra }\IeC {\cyrz }\IeC {\cyrv }\IeC {\cyra }\IeC {\cyrn }\IeC {\cyri }\IeC {\cyre } \IeC {\cyrp }\IeC {\cyro }\IeC {\cyrd }\IeC {\cyrr }\IeC {\cyra }\IeC {\cyrz }\IeC {\cyrd }\IeC {\cyre }\IeC {\cyrl }\IeC {\cyra }}{1}{subsection.1.1}
\contentsline {paragraph}{\IeC {\CYRN }\IeC {\cyra }\IeC {\cyrz }\IeC {\cyrv }\IeC {\cyra }\IeC {\cyrn }\IeC {\cyri }\IeC {\cyre } \IeC {\cyrp }\IeC {\cyra }\IeC {\cyrr }\IeC {\cyra }\IeC {\cyrg }\IeC {\cyrr }\IeC {\cyra }\IeC {\cyrf }\IeC {\cyra }}{1}{section*.2}
\contentsline {paragraph}{\IeC {\CYRN }\IeC {\cyra }\IeC {\cyrz }\IeC {\cyrv }\IeC {\cyra }\IeC {\cyrn }\IeC {\cyri }\IeC {\cyre } \IeC {\cyrp }\IeC {\cyra }\IeC {\cyrr }\IeC {\cyra }\IeC {\cyrg }\IeC {\cyrr }\IeC {\cyra }\IeC {\cyrf }\IeC {\cyra }}{1}{section*.3}
\contentsline {subsection}{\numberline {1.2}\IeC {\CYRN }\IeC {\cyra }\IeC {\cyrz }\IeC {\cyrv }\IeC {\cyra }\IeC {\cyrn }\IeC {\cyri }\IeC {\cyre } \IeC {\cyrp }\IeC {\cyro }\IeC {\cyrd }\IeC {\cyrr }\IeC {\cyra }\IeC {\cyrz }\IeC {\cyrd }\IeC {\cyre }\IeC {\cyrl }\IeC {\cyra }}{1}{subsection.1.2}
\contentsline {section}{\numberline {2}\IeC {\CYRN }\IeC {\cyra }\IeC {\cyrz }\IeC {\cyrv }\IeC {\cyra }\IeC {\cyrn }\IeC {\cyri }\IeC {\cyre } \IeC {\cyrr }\IeC {\cyra }\IeC {\cyrz }\IeC {\cyrd }\IeC {\cyre }\IeC {\cyrl }\IeC {\cyra }}{1}{section.2}
\contentsline {subsection}{\numberline {2.1}\IeC {\CYRN }\IeC {\cyra }\IeC {\cyrz }\IeC {\cyrv }\IeC {\cyra }\IeC {\cyrn }\IeC {\cyri }\IeC {\cyre } \IeC {\cyrp }\IeC {\cyro }\IeC {\cyrd }\IeC {\cyrr }\IeC {\cyra }\IeC {\cyrz }\IeC {\cyrd }\IeC {\cyre }\IeC {\cyrl }\IeC {\cyra }}{1}{subsection.2.1}
\contentsline {subsection}{\numberline {2.2}\IeC {\CYRN }\IeC {\cyra }\IeC {\cyrz }\IeC {\cyrv }\IeC {\cyra }\IeC {\cyrn }\IeC {\cyri }\IeC {\cyre } \IeC {\cyrp }\IeC {\cyro }\IeC {\cyrd }\IeC {\cyrr }\IeC {\cyra }\IeC {\cyrz }\IeC {\cyrd }\IeC {\cyre }\IeC {\cyrl }\IeC {\cyra }}{1}{subsection.2.2}
