PWD /home/user/LaTeX_Lecture1/Bibliography_standard
INPUT /etc/texmf/web2c/texmf.cnf
INPUT /usr/share/texmf/web2c/texmf.cnf
INPUT /usr/share/texlive/texmf-dist/web2c/texmf.cnf
INPUT /var/lib/texmf/web2c/pdftex/pdflatex.fmt
INPUT thebibliography.tex
OUTPUT thebibliography.log
INPUT /usr/share/texlive/texmf-dist/tex/latex/base/article.cls
INPUT /usr/share/texlive/texmf-dist/tex/latex/base/article.cls
INPUT /usr/share/texlive/texmf-dist/tex/latex/base/size12.clo
INPUT /usr/share/texlive/texmf-dist/tex/latex/base/size12.clo
INPUT /usr/share/texlive/texmf-dist/fonts/map/fontname/texfonts.map
INPUT /usr/share/texlive/texmf-dist/fonts/tfm/public/cm/cmr12.tfm
INPUT /usr/share/texlive/texmf-dist/tex/latex/cmap/cmap.sty
INPUT /usr/share/texlive/texmf-dist/tex/latex/cmap/cmap.sty
INPUT /usr/share/texlive/texmf-dist/tex/latex/t2/mathtext.sty
INPUT /usr/share/texlive/texmf-dist/tex/latex/t2/mathtext.sty
INPUT /usr/share/texlive/texmf-dist/tex/latex/base/fontenc.sty
INPUT /usr/share/texlive/texmf-dist/tex/latex/base/fontenc.sty
INPUT /usr/share/texlive/texmf-dist/tex/latex/cyrillic/t2aenc.def
INPUT /usr/share/texlive/texmf-dist/tex/latex/cyrillic/t2aenc.def
INPUT /usr/share/texlive/texmf-dist/tex/latex/cyrillic/t2acmr.fd
INPUT /usr/share/texlive/texmf-dist/tex/latex/cyrillic/t2acmr.fd
INPUT /home/user/.texmf-var/fonts/tfm/lh/lh-t2a/larm1200.tfm
INPUT /usr/share/texlive/texmf-dist/tex/latex/cmap/t2a.cmap
OUTPUT thebibliography.pdf
INPUT /usr/share/texlive/texmf-dist/tex/latex/cmap/t2a.cmap
INPUT /usr/share/texlive/texmf-dist/tex/latex/base/inputenc.sty
INPUT /usr/share/texlive/texmf-dist/tex/latex/base/inputenc.sty
INPUT /usr/share/texlive/texmf-dist/tex/latex/base/utf8.def
INPUT /usr/share/texlive/texmf-dist/tex/latex/base/utf8.def
INPUT /usr/share/texlive/texmf-dist/tex/latex/base/t1enc.dfu
INPUT /usr/share/texlive/texmf-dist/tex/latex/base/t1enc.dfu
INPUT /usr/share/texlive/texmf-dist/tex/latex/base/ot1enc.dfu
INPUT /usr/share/texlive/texmf-dist/tex/latex/base/ot1enc.dfu
INPUT /usr/share/texlive/texmf-dist/tex/latex/base/omsenc.dfu
INPUT /usr/share/texlive/texmf-dist/tex/latex/base/omsenc.dfu
INPUT /usr/share/texlive/texmf-dist/tex/latex/base/t2aenc.dfu
INPUT /usr/share/texlive/texmf-dist/tex/latex/base/t2aenc.dfu
INPUT /usr/share/texlive/texmf-dist/tex/generic/babel/babel.sty
INPUT /usr/share/texlive/texmf-dist/tex/generic/babel/babel.sty
INPUT /usr/share/texlive/texmf-dist/tex/generic/babel-english/english.ldf
INPUT /usr/share/texlive/texmf-dist/tex/generic/babel-english/english.ldf
INPUT /usr/share/texlive/texmf-dist/tex/generic/babel/babel.def
INPUT /usr/share/texlive/texmf-dist/tex/generic/babel-russian/russianb.ldf
INPUT /usr/share/texlive/texmf-dist/tex/generic/babel-russian/russianb.ldf
INPUT /usr/share/texlive/texmf-dist/tex/latex/amsmath/amsmath.sty
INPUT /usr/share/texlive/texmf-dist/tex/latex/amsmath/amsmath.sty
INPUT /usr/share/texlive/texmf-dist/tex/latex/amsmath/amstext.sty
INPUT /usr/share/texlive/texmf-dist/tex/latex/amsmath/amstext.sty
INPUT /usr/share/texlive/texmf-dist/tex/latex/amsmath/amsgen.sty
INPUT /usr/share/texlive/texmf-dist/tex/latex/amsmath/amsgen.sty
INPUT /usr/share/texlive/texmf-dist/tex/latex/amsmath/amsbsy.sty
INPUT /usr/share/texlive/texmf-dist/tex/latex/amsmath/amsbsy.sty
INPUT /usr/share/texlive/texmf-dist/tex/latex/amsmath/amsopn.sty
INPUT /usr/share/texlive/texmf-dist/tex/latex/amsmath/amsopn.sty
INPUT /usr/share/texlive/texmf-dist/tex/latex/amsfonts/amsfonts.sty
INPUT /usr/share/texlive/texmf-dist/tex/latex/amsfonts/amsfonts.sty
INPUT /usr/share/texlive/texmf-dist/tex/latex/amsfonts/amssymb.sty
INPUT /usr/share/texlive/texmf-dist/tex/latex/amsfonts/amssymb.sty
INPUT /usr/share/texlive/texmf-dist/tex/latex/amscls/amsthm.sty
INPUT /usr/share/texlive/texmf-dist/tex/latex/amscls/amsthm.sty
INPUT /usr/share/texlive/texmf-dist/tex/latex/mathtools/mathtools.sty
INPUT /usr/share/texlive/texmf-dist/tex/latex/mathtools/mathtools.sty
INPUT /usr/share/texlive/texmf-dist/tex/latex/graphics/keyval.sty
INPUT /usr/share/texlive/texmf-dist/tex/latex/graphics/keyval.sty
INPUT /usr/share/texlive/texmf-dist/tex/latex/tools/calc.sty
INPUT /usr/share/texlive/texmf-dist/tex/latex/tools/calc.sty
INPUT /usr/share/texlive/texmf-dist/tex/latex/mathtools/mhsetup.sty
INPUT /usr/share/texlive/texmf-dist/tex/latex/mathtools/mhsetup.sty
INPUT /usr/share/texlive/texmf-dist/tex/latex/was/icomma.sty
INPUT /usr/share/texlive/texmf-dist/tex/latex/was/icomma.sty
INPUT /usr/share/texlive/texmf-dist/tex/latex/graphics/graphicx.sty
INPUT /usr/share/texlive/texmf-dist/tex/latex/graphics/graphicx.sty
INPUT /usr/share/texlive/texmf-dist/tex/latex/graphics/graphics.sty
INPUT /usr/share/texlive/texmf-dist/tex/latex/graphics/graphics.sty
INPUT /usr/share/texlive/texmf-dist/tex/latex/graphics/trig.sty
INPUT /usr/share/texlive/texmf-dist/tex/latex/graphics/trig.sty
INPUT /usr/share/texlive/texmf-dist/tex/latex/latexconfig/graphics.cfg
INPUT /usr/share/texlive/texmf-dist/tex/latex/latexconfig/graphics.cfg
INPUT /usr/share/texlive/texmf-dist/tex/latex/pdftex-def/pdftex.def
INPUT /usr/share/texlive/texmf-dist/tex/latex/pdftex-def/pdftex.def
INPUT /usr/share/texlive/texmf-dist/tex/generic/oberdiek/infwarerr.sty
INPUT /usr/share/texlive/texmf-dist/tex/generic/oberdiek/infwarerr.sty
INPUT /usr/share/texlive/texmf-dist/tex/generic/oberdiek/ltxcmds.sty
INPUT /usr/share/texlive/texmf-dist/tex/generic/oberdiek/ltxcmds.sty
INPUT /usr/share/texlive/texmf-dist/tex/latex/wrapfig/wrapfig.sty
INPUT /usr/share/texlive/texmf-dist/tex/latex/wrapfig/wrapfig.sty
INPUT /usr/share/texlive/texmf-dist/tex/latex/tools/array.sty
INPUT /usr/share/texlive/texmf-dist/tex/latex/tools/array.sty
INPUT /usr/share/texlive/texmf-dist/tex/latex/tools/tabularx.sty
INPUT /usr/share/texlive/texmf-dist/tex/latex/tools/tabularx.sty
INPUT /usr/share/texlive/texmf-dist/tex/latex/tabulary/tabulary.sty
INPUT /usr/share/texlive/texmf-dist/tex/latex/tabulary/tabulary.sty
INPUT /usr/share/texlive/texmf-dist/tex/latex/booktabs/booktabs.sty
INPUT /usr/share/texlive/texmf-dist/tex/latex/booktabs/booktabs.sty
INPUT /usr/share/texlive/texmf-dist/tex/latex/tools/longtable.sty
INPUT /usr/share/texlive/texmf-dist/tex/latex/tools/longtable.sty
INPUT /usr/share/texlive/texmf-dist/tex/latex/multirow/multirow.sty
INPUT /usr/share/texlive/texmf-dist/tex/latex/multirow/multirow.sty
INPUT /usr/share/texlive/texmf-dist/tex/latex/etoolbox/etoolbox.sty
INPUT /usr/share/texlive/texmf-dist/tex/latex/etoolbox/etoolbox.sty
INPUT /usr/share/texlive/texmf-dist/tex/latex/extsizes/extsizes.sty
INPUT /usr/share/texlive/texmf-dist/tex/latex/extsizes/extsizes.sty
INPUT /usr/share/texlive/texmf-dist/tex/latex/base/size12.clo
INPUT /usr/share/texlive/texmf-dist/tex/latex/base/size12.clo
INPUT /usr/share/texlive/texmf-dist/tex/latex/geometry/geometry.sty
INPUT /usr/share/texlive/texmf-dist/tex/latex/geometry/geometry.sty
INPUT /usr/share/texlive/texmf-dist/tex/generic/oberdiek/ifpdf.sty
INPUT /usr/share/texlive/texmf-dist/tex/generic/oberdiek/ifpdf.sty
INPUT /usr/share/texlive/texmf-dist/tex/generic/oberdiek/ifvtex.sty
INPUT /usr/share/texlive/texmf-dist/tex/generic/oberdiek/ifvtex.sty
INPUT /usr/share/texlive/texmf-dist/tex/generic/ifxetex/ifxetex.sty
INPUT /usr/share/texlive/texmf-dist/tex/generic/ifxetex/ifxetex.sty
INPUT /usr/share/texlive/texmf-dist/tex/latex/setspace/setspace.sty
INPUT /usr/share/texlive/texmf-dist/tex/latex/setspace/setspace.sty
INPUT /usr/share/texlive/texmf-dist/tex/latex/lastpage/lastpage.sty
INPUT /usr/share/texlive/texmf-dist/tex/latex/lastpage/lastpage.sty
INPUT /usr/share/texlive/texmf-dist/tex/latex/soul/soul.sty
INPUT /usr/share/texlive/texmf-dist/tex/latex/soul/soul.sty
INPUT /usr/share/texlive/texmf-dist/fonts/tfm/jknappen/ec/ectt1000.tfm
INPUT /usr/share/texlive/texmf-dist/tex/latex/hyperref/hyperref.sty
INPUT /usr/share/texlive/texmf-dist/tex/latex/hyperref/hyperref.sty
INPUT /usr/share/texlive/texmf-dist/tex/generic/oberdiek/hobsub-hyperref.sty
INPUT /usr/share/texlive/texmf-dist/tex/generic/oberdiek/hobsub-hyperref.sty
INPUT /usr/share/texlive/texmf-dist/tex/generic/oberdiek/hobsub-hyperref.sty
INPUT /usr/share/texlive/texmf-dist/tex/generic/oberdiek/hobsub-generic.sty
INPUT /usr/share/texlive/texmf-dist/tex/generic/oberdiek/hobsub-generic.sty
INPUT /usr/share/texlive/texmf-dist/tex/latex/oberdiek/auxhook.sty
INPUT /usr/share/texlive/texmf-dist/tex/latex/oberdiek/auxhook.sty
INPUT /usr/share/texlive/texmf-dist/tex/latex/oberdiek/kvoptions.sty
INPUT /usr/share/texlive/texmf-dist/tex/latex/oberdiek/kvoptions.sty
INPUT /usr/share/texlive/texmf-dist/tex/latex/hyperref/pd1enc.def
INPUT /usr/share/texlive/texmf-dist/tex/latex/hyperref/pd1enc.def
INPUT /usr/share/texlive/texmf-dist/tex/latex/hyperref/puenc.def
INPUT /usr/share/texlive/texmf-dist/tex/latex/hyperref/puenc.def
INPUT /usr/share/texlive/texmf-dist/tex/latex/latexconfig/hyperref.cfg
INPUT /usr/share/texlive/texmf-dist/tex/latex/latexconfig/hyperref.cfg
INPUT /usr/share/texlive/texmf-dist/tex/latex/url/url.sty
INPUT /usr/share/texlive/texmf-dist/tex/latex/url/url.sty
INPUT /usr/share/texlive/texmf-dist/tex/latex/hyperref/hpdftex.def
INPUT /usr/share/texlive/texmf-dist/tex/latex/hyperref/hpdftex.def
INPUT /usr/share/texlive/texmf-dist/tex/latex/oberdiek/rerunfilecheck.sty
INPUT /usr/share/texlive/texmf-dist/tex/latex/oberdiek/rerunfilecheck.sty
INPUT /usr/share/texlive/texmf-dist/tex/latex/xcolor/xcolor.sty
INPUT /usr/share/texlive/texmf-dist/tex/latex/xcolor/xcolor.sty
INPUT /usr/share/texlive/texmf-dist/tex/latex/latexconfig/color.cfg
INPUT /usr/share/texlive/texmf-dist/tex/latex/latexconfig/color.cfg
INPUT /usr/share/texlive/texmf-dist/tex/latex/colortbl/colortbl.sty
INPUT /usr/share/texlive/texmf-dist/tex/latex/colortbl/colortbl.sty
INPUT /usr/share/texlive/texmf-dist/tex/latex/graphics/dvipsnam.def
INPUT /usr/share/texlive/texmf-dist/tex/latex/graphics/dvipsnam.def
INPUT /usr/share/texlive/texmf-dist/tex/latex/xcolor/svgnam.def
INPUT /usr/share/texlive/texmf-dist/tex/latex/xcolor/svgnam.def
INPUT /usr/share/texlive/texmf-dist/tex/latex/cite/cite.sty
INPUT /usr/share/texlive/texmf-dist/tex/latex/cite/cite.sty
INPUT /usr/share/texlive/texmf-dist/tex/latex/csquotes/csquotes.sty
INPUT /usr/share/texlive/texmf-dist/tex/latex/csquotes/csquotes.sty
INPUT /usr/share/texlive/texmf-dist/tex/latex/csquotes/csquotes.def
INPUT /usr/share/texlive/texmf-dist/tex/latex/csquotes/csquotes.def
INPUT /usr/share/texlive/texmf-dist/tex/latex/csquotes/csquotes.cfg
INPUT /usr/share/texlive/texmf-dist/tex/latex/csquotes/csquotes.cfg
INPUT /usr/share/texlive/texmf-dist/tex/latex/tools/multicol.sty
INPUT /usr/share/texlive/texmf-dist/tex/latex/tools/multicol.sty
INPUT thebibliography.aux
INPUT thebibliography.aux
OUTPUT thebibliography.aux
INPUT /usr/share/texlive/texmf-dist/tex/context/base/supp-pdf.mkii
INPUT /usr/share/texlive/texmf-dist/tex/context/base/supp-pdf.mkii
INPUT /usr/share/texlive/texmf-dist/tex/latex/oberdiek/epstopdf-base.sty
INPUT /usr/share/texlive/texmf-dist/tex/latex/oberdiek/epstopdf-base.sty
INPUT /usr/share/texlive/texmf-dist/tex/latex/oberdiek/grfext.sty
INPUT /usr/share/texlive/texmf-dist/tex/latex/oberdiek/grfext.sty
INPUT /usr/share/texlive/texmf-dist/tex/latex/latexconfig/epstopdf-sys.cfg
INPUT /usr/share/texlive/texmf-dist/tex/latex/latexconfig/epstopdf-sys.cfg
INPUT /usr/share/texlive/texmf-dist/tex/latex/hyperref/nameref.sty
INPUT /usr/share/texlive/texmf-dist/tex/latex/hyperref/nameref.sty
INPUT /usr/share/texlive/texmf-dist/tex/generic/oberdiek/gettitlestring.sty
INPUT /usr/share/texlive/texmf-dist/tex/generic/oberdiek/gettitlestring.sty
INPUT thebibliography.out
INPUT thebibliography.out
INPUT thebibliography.out
INPUT thebibliography.out
INPUT ./thebibliography.out
INPUT ./thebibliography.out
OUTPUT thebibliography.out
INPUT /home/user/.texmf-var/fonts/tfm/lh/lh-t2a/larm1728.tfm
INPUT /home/user/.texmf-var/fonts/tfm/lh/lh-t2a/labx1728.tfm
INPUT thebibliography.toc
INPUT thebibliography.toc
INPUT /home/user/.texmf-var/fonts/tfm/lh/lh-t2a/labx1200.tfm
OUTPUT thebibliography.toc
INPUT /usr/share/texlive/texmf-dist/tex/latex/cyrillic/t2acmtt.fd
INPUT /usr/share/texlive/texmf-dist/tex/latex/cyrillic/t2acmtt.fd
INPUT /home/user/.texmf-var/fonts/tfm/lh/lh-t2a/latt1200.tfm
INPUT /var/lib/texmf/fonts/map/pdftex/updmap/pdftex.map
INPUT thebibliography.aux
INPUT ./thebibliography.out
INPUT ./thebibliography.out
INPUT /usr/share/texmf/fonts/enc/dvips/cm-super/cm-super-t2a.enc
INPUT /usr/share/texmf/fonts/type1/public/cm-super/sfbx1200.pfb
INPUT /usr/share/texmf/fonts/type1/public/cm-super/sfbx1728.pfb
INPUT /usr/share/texmf/fonts/type1/public/cm-super/sfrm1200.pfb
INPUT /usr/share/texmf/fonts/type1/public/cm-super/sftt1200.pfb
