\select@language {russian}
\contentsline {section}{\numberline {1}\IeC {\CYRP }\IeC {\cyrr }\IeC {\cyro }\IeC {\cyrs }\IeC {\cyrt }\IeC {\cyra }\IeC {\cyrya } \IeC {\cyrb }\IeC {\cyri }\IeC {\cyrb }\IeC {\cyrl }\IeC {\cyri }\IeC {\cyro }\IeC {\cyrg }\IeC {\cyrr }\IeC {\cyra }\IeC {\cyrf }\IeC {\cyri }\IeC {\cyrya }}{1}{section.1}
\contentsline {section}{\numberline {2}\IeC {\CYRP }\IeC {\cyra }\IeC {\cyrk }\IeC {\cyre }\IeC {\cyrt } cite}{1}{section.2}
\contentsline {section}{\IeC {\CYRS }\IeC {\cyrp }\IeC {\cyri }\IeC {\cyrs }\IeC {\cyro }\IeC {\cyrk } \IeC {\cyri }\IeC {\cyrs }\IeC {\cyrt }\IeC {\cyro }\IeC {\cyrch }\IeC {\cyrn }\IeC {\cyri }\IeC {\cyrk }\IeC {\cyro }\IeC {\cyrv }}{1}{section*.2}
