\BOOKMARK [1][-]{section.1}{ \040 }{}% 1
\BOOKMARK [2][-]{subsection.1.1}{ py}{section.1}% 2
\BOOKMARK [2][-]{subsection.1.2}{ pyconsole}{section.1}% 3
\BOOKMARK [2][-]{subsection.1.3}{ pycode}{section.1}% 4
\BOOKMARK [1][-]{section.2}{ }{}% 5
\BOOKMARK [1][-]{section.3}{ }{}% 6
