\relax 
\catcode `"\active 
\select@language{russian}
\@writefile{toc}{\select@language{russian}}
\@writefile{lof}{\select@language{russian}}
\@writefile{lot}{\select@language{russian}}
\@writefile{toc}{\contentsline {section}{\numberline {1}\IeC {\CYRP }\IeC {\cyre }\IeC {\cyrr }\IeC {\cyrv }\IeC {\cyra }\IeC {\cyrya } \IeC {\cyrg }\IeC {\cyrl }\IeC {\cyra }\IeC {\cyrv }\IeC {\cyra }}{1}}
\@input{chapters/ch2.aux}
\@input{chapters/ch3.aux}
