\relax 
\catcode `"\active 
\select@language{russian}
\@writefile{toc}{\select@language{russian}}
\@writefile{lof}{\select@language{russian}}
\@writefile{lot}{\select@language{russian}}
\@writefile{toc}{\contentsline {section}{\numberline {1}\IeC {\CYRS }\IeC {\cyrch }\IeC {\cyre }\IeC {\cyrt }\IeC {\cyrch }\IeC {\cyri }\IeC {\cyrk }\IeC {\cyri }}{1}}
\@writefile{toc}{\contentsline {section}{\numberline {2}\IeC {\CYRN }\IeC {\cyro }\IeC {\cyrv }\IeC {\cyrery }\IeC {\cyre } \IeC {\cyrk }\IeC {\cyro }\IeC {\cyrm }\IeC {\cyra }\IeC {\cyrn }\IeC {\cyrd }\IeC {\cyrery }}{1}}
\newlabel{pref}{{1}{1}}
