\relax 
\catcode `"\active 
\select@language{russian}
\@writefile{toc}{\select@language{russian}}
\@writefile{lof}{\select@language{russian}}
\@writefile{lot}{\select@language{russian}}
\@writefile{toc}{\contentsline {section}{\numberline {1}\IeC {\CYRT }\IeC {\cyra }\IeC {\cyrb }\IeC {\cyrl }\IeC {\cyri }\IeC {\cyrc }\IeC {\cyrery }}{1}}
\@writefile{toc}{\contentsline {section}{\numberline {2}\IeC {\CYRP }\IeC {\cyrl }\IeC {\cyra }\IeC {\cyrv }\IeC {\cyra }\IeC {\cyryu }\IeC {\cyrshch }\IeC {\cyri }\IeC {\cyre } \IeC {\cyro }\IeC {\cyrb }\IeC {\cyrhrdsn }\IeC {\cyre }\IeC {\cyrk }\IeC {\cyrt }\IeC {\cyrery }}{1}}
\@writefile{lot}{\contentsline {table}{\numberline {1}{\ignorespaces \IeC {\CYRZ }\IeC {\cyra }\IeC {\cyrg }\IeC {\cyro }\IeC {\cyrl }\IeC {\cyro }\IeC {\cyrv }\IeC {\cyro }\IeC {\cyrk } \IeC {\cyrd }\IeC {\cyrl }\IeC {\cyrya } \IeC {\cyrs }\IeC {\cyrp }\IeC {\cyri }\IeC {\cyrs }\IeC {\cyrk }\IeC {\cyra } \IeC {\cyrt }\IeC {\cyra }\IeC {\cyrb }\IeC {\cyrl }\IeC {\cyri }\IeC {\cyrc }}}{2}}
\newlabel{tab:mytab}{{1}{2}}
\@writefile{lot}{\contentsline {table}{\numberline {2}{\IeC {\CYRZ }\IeC {\cyra }\IeC {\cyrg }\IeC {\cyro }\IeC {\cyrl }\IeC {\cyro }\IeC {\cyrv }\IeC {\cyro }\IeC {\cyrk } \IeC {\cyrb }\IeC {\cyro }\IeC {\cyrl }\IeC {\cyrsftsn }\IeC {\cyrsh }\IeC {\cyro }\IeC {\cyrishrt } \IeC {\cyrt }\IeC {\cyra }\IeC {\cyrb }\IeC {\cyrl }\IeC {\cyri }\IeC {\cyrc }\IeC {\cyrery }.}}{2}}
\gdef \LT@i {\LT@entry 
    {5}{74.79872pt}\LT@entry 
    {5}{74.39873pt}\LT@entry 
    {5}{74.39873pt}\LT@entry 
    {5}{74.39873pt}}
\@writefile{lot}{\contentsline {table}{\numberline {3}{\ignorespaces \IeC {\CYRO }\IeC {\cyrb }\IeC {\cyrt }\IeC {\cyre }\IeC {\cyrk }\IeC {\cyra }\IeC {\cyre }\IeC {\cyrm }\IeC {\cyra }\IeC {\cyrya } \IeC {\cyrt }\IeC {\cyra }\IeC {\cyrb }\IeC {\cyrl }\IeC {\cyri }\IeC {\cyrc }\IeC {\cyra }}}{4}}
