\relax 
\@writefile{toc}{\contentsline {section}{\numberline {3}\IeC {\CYRT }\IeC {\cyrr }\IeC {\cyre }\IeC {\cyrt }\IeC {\cyrsftsn }\IeC {\cyrya } \IeC {\cyrg }\IeC {\cyrl }\IeC {\cyra }\IeC {\cyrv }\IeC {\cyra }}{3}}
\@setckpt{chapters/ch3}{
\setcounter{page}{4}
\setcounter{equation}{0}
\setcounter{enumi}{0}
\setcounter{enumii}{0}
\setcounter{enumiii}{0}
\setcounter{enumiv}{0}
\setcounter{footnote}{0}
\setcounter{mpfootnote}{0}
\setcounter{part}{0}
\setcounter{section}{3}
\setcounter{subsection}{0}
\setcounter{subsubsection}{0}
\setcounter{paragraph}{0}
\setcounter{subparagraph}{0}
\setcounter{figure}{0}
\setcounter{table}{0}
}
