\relax 
\catcode `"\active 
\providecommand \oddpage@label [2]{}
\select@language{russian}
\@writefile{toc}{\select@language{russian}}
\@writefile{lof}{\select@language{russian}}
\@writefile{lot}{\select@language{russian}}
\@writefile{toc}{\contentsline {section}{\IeC {\CYRO }\IeC {\CYRB }\IeC {\CYRO }\IeC {\CYRZ }\IeC {\CYRN }\IeC {\CYRA }\IeC {\CYRCH }\IeC {\CYRE }\IeC {\CYRN }\IeC {\CYRI }\IeC {\CYRYA } \IeC {\CYRI } \IeC {\CYRS }\IeC {\CYRO }\IeC {\CYRK }\IeC {\CYRR }\IeC {\CYRA }\IeC {\CYRSHCH }\IeC {\CYRE }\IeC {\CYRN }\IeC {\CYRI }\IeC {\CYRYA }}{5}}
\@writefile{toc}{\contentsline {section}{\IeC {\CYRV }\IeC {\CYRV }\IeC {\CYRE }\IeC {\CYRD }\IeC {\CYRE }\IeC {\CYRN }\IeC {\CYRI }\IeC {\CYRE }}{6}}
\citation{gostesi}
\citation{plmsys}
\citation{pdmsys}
\citation{gostespd,gosteskd}
\@writefile{toc}{\setcounter {tocdepth}{2}}
\@writefile{toc}{\contentsline {section}{\numberline {1}\IeC {\CYRA }\IeC {\cyrn }\IeC {\cyra }\IeC {\cyrl }\IeC {\cyri }\IeC {\cyrz } \IeC {\cyro }\IeC {\cyrs }\IeC {\cyro }\IeC {\cyrb }\IeC {\cyre }\IeC {\cyrn }\IeC {\cyrn }\IeC {\cyro }\IeC {\cyrs }\IeC {\cyrt }\IeC {\cyre }\IeC {\cyrishrt } \IeC {\cyrp }\IeC {\cyrr }\IeC {\cyro }\IeC {\cyrc }\IeC {\cyre }\IeC {\cyrs }\IeC {\cyrs }\IeC {\cyra } \IeC {\cyrr }\IeC {\cyra }\IeC {\cyrz }\IeC {\cyrr }\IeC {\cyra }\IeC {\cyrb }\IeC {\cyro }\IeC {\cyrt }\IeC {\cyrk }\IeC {\cyri } \IeC {\cyrerev }\IeC {\cyrl }\IeC {\cyre }\IeC {\cyrk }\IeC {\cyrt }\IeC {\cyrr }\IeC {\cyro }\IeC {\cyrn }\IeC {\cyrn }\IeC {\cyrery }\IeC {\cyrh } \IeC {\cyru }\IeC {\cyrs }\IeC {\cyrt }\IeC {\cyrr }\IeC {\cyro }\IeC {\cyrishrt }\IeC {\cyrs }\IeC {\cyrt }\IeC {\cyrv }}{12}}
\@writefile{toc}{\contentsline {subsection}{\numberline {1.1}\IeC {\CYRP }\IeC {\cyrr }\IeC {\cyro }\IeC {\cyrc }\IeC {\cyre }\IeC {\cyrs }\IeC {\cyrs } \IeC {\cyrr }\IeC {\cyra }\IeC {\cyrz }\IeC {\cyrr }\IeC {\cyra }\IeC {\cyrb }\IeC {\cyro }\IeC {\cyrt }\IeC {\cyrk }\IeC {\cyri } \IeC {\cyrerev }\IeC {\cyrl }\IeC {\cyre }\IeC {\cyrk }\IeC {\cyrt }\IeC {\cyrr }\IeC {\cyro }\IeC {\cyrn }\IeC {\cyrn }\IeC {\cyrery }\IeC {\cyrh } \IeC {\cyru }\IeC {\cyrs }\IeC {\cyrt }\IeC {\cyrr }\IeC {\cyro }\IeC {\cyrishrt }\IeC {\cyrs }\IeC {\cyrt }\IeC {\cyrv }}{12}}
\newlabel{subsec:proc_design}{{1.1}{12}}
\@writefile{toc}{\contentsline {subsubsection}{1.1.1~\IeC {\CYRO }\IeC {\cyrs }\IeC {\cyrn }\IeC {\cyro }\IeC {\cyrv }\IeC {\cyrn }\IeC {\cyrery }\IeC {\cyre } \IeC {\cyrerev }\IeC {\cyrt }\IeC {\cyra }\IeC {\cyrp }\IeC {\cyrery } \IeC {\cyrr }\IeC {\cyra }\IeC {\cyrz }\IeC {\cyrr }\IeC {\cyra }\IeC {\cyrb }\IeC {\cyro }\IeC {\cyrt }\IeC {\cyrk }\IeC {\cyri } \IeC {\cyrerev }\IeC {\cyrl }\IeC {\cyre }\IeC {\cyrk }\IeC {\cyrt }\IeC {\cyrr }\IeC {\cyro }\IeC {\cyrn }\IeC {\cyrn }\IeC {\cyrery }\IeC {\cyrh } \IeC {\cyru }\IeC {\cyrs }\IeC {\cyrt }\IeC {\cyrr }\IeC {\cyro }\IeC {\cyrishrt }\IeC {\cyrs }\IeC {\cyrt }\IeC {\cyrv }}{12}}
\@writefile{toc}{\contentsline {subsubsection}{1.1.2~\IeC {\CYRS }\IeC {\cyrt }\IeC {\cyra }\IeC {\cyrd }\IeC {\cyri }\IeC {\cyrya } \IeC {\cyrp }\IeC {\cyrr }\IeC {\cyro }\IeC {\cyre }\IeC {\cyrk }\IeC {\cyrt }\IeC {\cyri }\IeC {\cyrr }\IeC {\cyro }\IeC {\cyrv }\IeC {\cyra }\IeC {\cyrn }\IeC {\cyri }\IeC {\cyrya } \IeC {\cyru }\IeC {\cyrs }\IeC {\cyrt }\IeC {\cyrr }\IeC {\cyro }\IeC {\cyrishrt }\IeC {\cyrs }\IeC {\cyrt }\IeC {\cyrv }\IeC {\cyra }}{12}}
\@writefile{toc}{\contentsline {subsubsection}{1.1.3~\IeC {\CYRS }\IeC {\cyrt }\IeC {\cyra }\IeC {\cyrd }\IeC {\cyri }\IeC {\cyrya } \IeC {\cyrp }\IeC {\cyrr }\IeC {\cyro }\IeC {\cyri }\IeC {\cyrz }\IeC {\cyrv }\IeC {\cyro }\IeC {\cyrd }\IeC {\cyrs }\IeC {\cyrt }\IeC {\cyrv }\IeC {\cyra } \IeC {\cyru }\IeC {\cyrs }\IeC {\cyrt }\IeC {\cyrr }\IeC {\cyro }\IeC {\cyrishrt }\IeC {\cyrs }\IeC {\cyrt }\IeC {\cyrv }\IeC {\cyra }}{12}}
\newlabel{point:st_d_d}{{1.1.3}{12}}
\citation{gosteskd}
\@writefile{toc}{\contentsline {subsection}{\numberline {1.2}\IeC {\CYRV }\IeC {\cyri }\IeC {\cyrd }\IeC {\cyrery } \IeC {\cyrk }\IeC {\cyro }\IeC {\cyrn }\IeC {\cyrs }\IeC {\cyrt }\IeC {\cyrr }\IeC {\cyru }\IeC {\cyrk }\IeC {\cyrt }\IeC {\cyro }\IeC {\cyrr }\IeC {\cyrs }\IeC {\cyrk }\IeC {\cyri }\IeC {\cyrh } \IeC {\cyrd }\IeC {\cyro }\IeC {\cyrk }\IeC {\cyru }\IeC {\cyrm }\IeC {\cyre }\IeC {\cyrn }\IeC {\cyrt }\IeC {\cyro }\IeC {\cyrv } \IeC {\cyro }\IeC {\cyrf }\IeC {\cyro }\IeC {\cyrr }\IeC {\cyrm }\IeC {\cyrl }\IeC {\cyrya }\IeC {\cyre }\IeC {\cyrm }\IeC {\cyrery }\IeC {\cyrh } \IeC {\cyrp }\IeC {\cyrr }\IeC {\cyri } \IeC {\cyrr }\IeC {\cyra }\IeC {\cyrz }\IeC {\cyrr }\IeC {\cyra }\IeC {\cyrb }\IeC {\cyro }\IeC {\cyrt }\IeC {\cyrk }\IeC {\cyre } \IeC {\cyrerev }\IeC {\cyrl }\IeC {\cyre }\IeC {\cyrk }\IeC {\cyrt }\IeC {\cyrr }\IeC {\cyro }\IeC {\cyrn }\IeC {\cyrn }\IeC {\cyrery }\IeC {\cyrh } \IeC {\cyru }\IeC {\cyrs }\IeC {\cyrt }\IeC {\cyrr }\IeC {\cyro }\IeC {\cyrishrt }\IeC {\cyrs }\IeC {\cyrt }\IeC {\cyrv }}{13}}
\@writefile{toc}{\contentsline {subsubsection}{1.2.1~\IeC {\CYRS }\IeC {\cyrh }\IeC {\cyre }\IeC {\cyrm }\IeC {\cyra } \IeC {\cyrerev }\IeC {\cyrl }\IeC {\cyre }\IeC {\cyrk }\IeC {\cyrt }\IeC {\cyrr }\IeC {\cyri }\IeC {\cyrch }\IeC {\cyre }\IeC {\cyrs }\IeC {\cyrk }\IeC {\cyra }\IeC {\cyrya } \IeC {\cyrp }\IeC {\cyrr }\IeC {\cyri }\IeC {\cyrn }\IeC {\cyrc }\IeC {\cyri }\IeC {\cyrp }\IeC {\cyri }\IeC {\cyra }\IeC {\cyrl }\IeC {\cyrsftsn }\IeC {\cyrn }\IeC {\cyra }\IeC {\cyrya }}{13}}
\@writefile{toc}{\contentsline {subsubsection}{1.2.2~\IeC {\CYRP }\IeC {\cyre }\IeC {\cyrr }\IeC {\cyre }\IeC {\cyrch }\IeC {\cyre }\IeC {\cyrn }\IeC {\cyrsftsn } \IeC {\cyrerev }\IeC {\cyrl }\IeC {\cyre }\IeC {\cyrm }\IeC {\cyre }\IeC {\cyrn }\IeC {\cyrt }\IeC {\cyro }\IeC {\cyrv }}{13}}
\@writefile{lof}{\contentsline {figure}{\numberline {1}{\ignorespaces \IeC {\CYRP }\IeC {\cyre }\IeC {\cyrr }\IeC {\cyre }\IeC {\cyrch }\IeC {\cyre }\IeC {\cyrn }\IeC {\cyrsftsn } \IeC {\cyrerev }\IeC {\cyrl }\IeC {\cyre }\IeC {\cyrm }\IeC {\cyre }\IeC {\cyrn }\IeC {\cyrt }\IeC {\cyro }\IeC {\cyrv }\relax }}{14}}
\providecommand*\caption@xref[2]{\@setref\relax\@undefined{#1}}
\newlabel{pic:loe}{{1}{14}}
\newlabel{totalfigures::pic:loe}{{1}{14}}
\@writefile{toc}{\setcounter {tocdepth}{3}}
\gdef \LT@i {\LT@entry 
    {1}{98.15825pt}\LT@entry 
    {1}{100.60353pt}\LT@entry 
    {1}{97.75826pt}\LT@entry 
    {1}{97.75826pt}\LT@entry 
    {1}{77.84132pt}}
\@writefile{toc}{\contentsline {section}{\numberline {2}\IeC {\CYRR }\IeC {\cyra }\IeC {\cyrz }\IeC {\cyrr }\IeC {\cyra }\IeC {\cyrb }\IeC {\cyro }\IeC {\cyrt }\IeC {\cyrk }\IeC {\cyra } \IeC {\cyrs }\IeC {\cyri }\IeC {\cyrs }\IeC {\cyrt }\IeC {\cyre }\IeC {\cyrm }\IeC {\cyrery } \IeC {\cyra }\IeC {\cyrv }\IeC {\cyrt }\IeC {\cyro }\IeC {\cyrm }\IeC {\cyra }\IeC {\cyrt }\IeC {\cyri }\IeC {\cyrz }\IeC {\cyra }\IeC {\cyrc }\IeC {\cyri }\IeC {\cyri } \IeC {\cyrv }\IeC {\cyrery }\IeC {\cyrp }\IeC {\cyru }\IeC {\cyrs }\IeC {\cyrk }\IeC {\cyra } \IeC {\cyri } \IeC {\cyrh }\IeC {\cyrr }\IeC {\cyra }\IeC {\cyrn }\IeC {\cyre }\IeC {\cyrn }\IeC {\cyri }\IeC {\cyrya } \IeC {\cyrk }\IeC {\cyro }\IeC {\cyrn }\IeC {\cyrs }\IeC {\cyrt }\IeC {\cyrr }\IeC {\cyru }\IeC {\cyrk }\IeC {\cyrt }\IeC {\cyro }\IeC {\cyrr }\IeC {\cyrs }\IeC {\cyrk }\IeC {\cyro }\IeC {\cyrishrt } \IeC {\cyrd }\IeC {\cyro }\IeC {\cyrk }\IeC {\cyru }\IeC {\cyrm }\IeC {\cyre }\IeC {\cyrn }\IeC {\cyrt }\IeC {\cyra }\IeC {\cyrc }\IeC {\cyri }\IeC {\cyri } \IeC {\cyrerev }\IeC {\cyrl }\IeC {\cyre }\IeC {\cyrk }\IeC {\cyrt }\IeC {\cyrr }\IeC {\cyro }\IeC {\cyrn }\IeC {\cyrn }\IeC {\cyrery }\IeC {\cyrh } \IeC {\cyru }\IeC {\cyrs }\IeC {\cyrt }\IeC {\cyrr }\IeC {\cyro }\IeC {\cyrishrt }\IeC {\cyrs }\IeC {\cyrt }\IeC {\cyrv }}{16}}
\@writefile{toc}{\contentsline {subsection}{\numberline {2.1}\IeC {\CYRR }\IeC {\cyra }\IeC {\cyrz }\IeC {\cyrr }\IeC {\cyra }\IeC {\cyrb }\IeC {\cyro }\IeC {\cyrt }\IeC {\cyrk }\IeC {\cyra } \IeC {\cyrp }\IeC {\cyro }\IeC {\cyrd }\IeC {\cyrs }\IeC {\cyri }\IeC {\cyrs }\IeC {\cyrt }\IeC {\cyre }\IeC {\cyrm }\IeC {\cyrery } \IeC {\cyru }\IeC {\cyrp }\IeC {\cyrr }\IeC {\cyra }\IeC {\cyrv }\IeC {\cyrl }\IeC {\cyre }\IeC {\cyrn }\IeC {\cyri }\IeC {\cyrya } \IeC {\CYREREV }\IeC {\CYRS }\IeC {\CYRI }}{16}}
\@writefile{toc}{\contentsline {subsubsection}{2.1.1~\IeC {\CYRV }\IeC {\cyrery }\IeC {\cyrb }\IeC {\cyro }\IeC {\cyrr } \IeC {\cyrf }\IeC {\cyro }\IeC {\cyrr }\IeC {\cyrm }\IeC {\cyra }\IeC {\cyrt }\IeC {\cyra } \IeC {\cyrf }\IeC {\cyra }\IeC {\cyrishrt }\IeC {\cyrl }\IeC {\cyra } \IeC {\cyrs }\IeC {\cyrt }\IeC {\cyrr }\IeC {\cyru }\IeC {\cyrk }\IeC {\cyrt }\IeC {\cyru }\IeC {\cyrr }\IeC {\cyrery }}{16}}
\@writefile{lot}{\contentsline {table}{\numberline {1}{\ignorespaces \IeC {\CYRS }\IeC {\cyrr }\IeC {\cyra }\IeC {\cyrv }\IeC {\cyrn }\IeC {\cyre }\IeC {\cyrn }\IeC {\cyri }\IeC {\cyre } \IeC {\CYRP }\IeC {\CYRO } \IeC {\cyrd }\IeC {\cyrl }\IeC {\cyrya } \IeC {\cyrp }\IeC {\cyrr }\IeC {\cyro }\IeC {\cyrs }\IeC {\cyrm }\IeC {\cyro }\IeC {\cyrt }\IeC {\cyrr }\IeC {\cyra } \IeC {\CYREREV }\IeC {\CYRS }\IeC {\CYRI }\relax }}{16}}
\newlabel{tab:prog_XML}{{1}{16}}
\newlabel{totaltables::tab:prog_XML}{{1}{16}}
\@writefile{toc}{\contentsline {subsubsection}{2.1.2~\IeC {\CYRS }\IeC {\CYRA }\IeC {\CYRP }\IeC {\CYRR } EDA \IeC {\cyrd }\IeC {\cyrl }\IeC {\cyrya } \IeC {\cyrr }\IeC {\cyra }\IeC {\cyrz }\IeC {\cyrr }\IeC {\cyra }\IeC {\cyrb }\IeC {\cyro }\IeC {\cyrt }\IeC {\cyrk }\IeC {\cyri } \IeC {\CYREREV }\IeC {\CYRS }\IeC {\CYRI }}{16}}
\@writefile{toc}{\contentsline {paragraph}{2.1.2.0~\IeC {\CYRI }\IeC {\cyrn }\IeC {\cyrs }\IeC {\cyrt }\IeC {\cyrr }\IeC {\cyru }\IeC {\cyrm }\IeC {\cyre }\IeC {\cyrn }\IeC {\cyrt } QEDA}{16}}
\newlabel{subpoint:qeda}{{2.1.2.1}{16}}
\@writefile{toc}{\contentsline {subsection}{\numberline {2.2}\IeC {\CYRR }\IeC {\cyra }\IeC {\cyrz }\IeC {\cyrr }\IeC {\cyra }\IeC {\cyrb }\IeC {\cyro }\IeC {\cyrt }\IeC {\cyrk }\IeC {\cyra } \IeC {\cyrp }\IeC {\cyro }\IeC {\cyrd }\IeC {\cyrs }\IeC {\cyri }\IeC {\cyrs }\IeC {\cyrt }\IeC {\cyre }\IeC {\cyrm }\IeC {\cyrery } \IeC {\cyrf }\IeC {\cyro }\IeC {\cyrr }\IeC {\cyrm }\IeC {\cyri }\IeC {\cyrr }\IeC {\cyro }\IeC {\cyrv }\IeC {\cyra }\IeC {\cyrn }\IeC {\cyri }\IeC {\cyrya } \IeC {\cyrk }\IeC {\cyro }\IeC {\cyrn }\IeC {\cyrs }\IeC {\cyrt }\IeC {\cyrr }\IeC {\cyru }\IeC {\cyrk }\IeC {\cyrt }\IeC {\cyro }\IeC {\cyrr }\IeC {\cyrs }\IeC {\cyrk }\IeC {\cyro }\IeC {\cyrishrt } \IeC {\cyrd }\IeC {\cyro }\IeC {\cyrk }\IeC {\cyru }\IeC {\cyrm }\IeC {\cyre }\IeC {\cyrn }\IeC {\cyrt }\IeC {\cyra }\IeC {\cyrc }\IeC {\cyri }\IeC {\cyri }}{17}}
\@writefile{toc}{\contentsline {section}{\numberline {3}\IeC {\CYRR }\IeC {\cyra }\IeC {\cyrz }\IeC {\cyrr }\IeC {\cyra }\IeC {\cyrb }\IeC {\cyro }\IeC {\cyrt }\IeC {\cyrk }\IeC {\cyra } \IeC {\cyrt }\IeC {\cyre }\IeC {\cyrh }\IeC {\cyrn }\IeC {\cyro }\IeC {\cyrl }\IeC {\cyro }\IeC {\cyrg }\IeC {\cyri }\IeC {\cyri } \IeC {\cyri }\IeC {\cyrs }\IeC {\cyrp }\IeC {\cyro }\IeC {\cyrl }\IeC {\cyrsftsn }\IeC {\cyrz }\IeC {\cyro }\IeC {\cyrv }\IeC {\cyra }\IeC {\cyrn }\IeC {\cyri }\IeC {\cyrya } \IeC {\cyri } \IeC {\cyrt }\IeC {\cyre }\IeC {\cyrs }\IeC {\cyrt }\IeC {\cyri }\IeC {\cyrr }\IeC {\cyro }\IeC {\cyrv }\IeC {\cyra }\IeC {\cyrn }\IeC {\cyri }\IeC {\cyre } \IeC {\cyrs }\IeC {\cyri }\IeC {\cyrs }\IeC {\cyrt }\IeC {\cyre }\IeC {\cyrm }\IeC {\cyrery }}{18}}
\@writefile{toc}{\contentsline {subsection}{\numberline {3.1}\IeC {\CYRR }\IeC {\cyru }\IeC {\cyrk }\IeC {\cyro }\IeC {\cyrv }\IeC {\cyro }\IeC {\cyrd }\IeC {\cyrs }\IeC {\cyrt }\IeC {\cyrv }\IeC {\cyro } \IeC {\cyrp }\IeC {\cyro }\IeC {\cyrl }\IeC {\cyrsftsn }\IeC {\cyrz }\IeC {\cyro }\IeC {\cyrv }\IeC {\cyra }\IeC {\cyrt }\IeC {\cyre }\IeC {\cyrl }\IeC {\cyrya }}{18}}
\@writefile{toc}{\contentsline {subsection}{\numberline {3.2}\IeC {\CYRT }\IeC {\cyre }\IeC {\cyrs }\IeC {\cyrt }\IeC {\cyri }\IeC {\cyrr }\IeC {\cyro }\IeC {\cyrv }\IeC {\cyra }\IeC {\cyrn }\IeC {\cyri }\IeC {\cyre } \IeC {\cyrs }\IeC {\cyri }\IeC {\cyrs }\IeC {\cyrt }\IeC {\cyre }\IeC {\cyrm }\IeC {\cyrery }}{18}}
\@writefile{toc}{\contentsline {section}{\IeC {\CYRZ }\IeC {\CYRA }\IeC {\CYRK }\IeC {\CYRL }\IeC {\CYRYU }\IeC {\CYRCH }\IeC {\CYRE }\IeC {\CYRN }\IeC {\CYRI }\IeC {\CYRE }}{18}}
\@writefile{toc}{\contentsline {section}{\IeC {\CYRS }\IeC {\CYRP }\IeC {\CYRI }\IeC {\CYRS }\IeC {\CYRO }\IeC {\CYRK } \IeC {\CYRI }\IeC {\CYRS }\IeC {\CYRP }\IeC {\CYRO }\IeC {\CYRL }\IeC {\CYRSFTSN }\IeC {\CYRZ }\IeC {\CYRO }\IeC {\CYRV }\IeC {\CYRA }\IeC {\CYRN }\IeC {\CYRN }\IeC {\CYRERY }\IeC {\CYRH } \IeC {\CYRI }\IeC {\CYRS }\IeC {\CYRT }\IeC {\CYRO }\IeC {\CYRCH }\IeC {\CYRN }\IeC {\CYRI }\IeC {\CYRK }\IeC {\CYRO }\IeC {\CYRV }}{20}}
\bibcite{gostesi}{1}
\bibcite{gostespd}{2}
\bibcite{gosteskd}{3}
\bibcite{gost_gci}{4}
\bibcite{GOST19701}{5}
\bibcite{GOST7}{6}
\bibcite{Ivanova}{7}
\bibcite{Hartov}{8}
\bibcite{latex}{9}
\bibcite{javascript}{10}
\bibcite{python}{11}
\bibcite{Maslov1}{12}
\bibcite{Maslov2}{13}
\bibcite{plmsys}{14}
\bibcite{pdmsys}{15}
\bibcite{kicad_review}{16}
\bibcite{pcad}{17}
\bibcite{proteus}{18}
\bibcite{kicad}{19}
\bibcite{solidworks}{20}
\bibcite{autocad}{21}
\bibcite{librecad}{22}
\bibcite{freecad}{23}
\bibcite{microsoft}{24}
\bibcite{adobe}{25}
\bibcite{latex1}{26}
\bibcite{xml}{27}
\bibcite{yaml}{28}
\bibcite{uml}{29}
\bibcite{latex2}{30}
\bibcite{qeda}{31}
\@writefile{toc}{\contentsline {section}{\IeC {\CYRP }\IeC {\CYRR }\IeC {\CYRI }\IeC {\CYRL }\IeC {\CYRO }\IeC {\CYRZH }\IeC {\CYRE }\IeC {\CYRN }\IeC {\CYRI }\IeC {\CYRE }~\CYRA .~\MakeUppercase  {\IeC {\CYRT }\IeC {\CYRE }\IeC {\CYRH }\IeC {\CYRN }\IeC {\CYRI }\IeC {\CYRCH }\IeC {\CYRE }\IeC {\CYRS }\IeC {\CYRK }\IeC {\CYRO }\IeC {\CYRE } \IeC {\CYRZ }\IeC {\CYRA }\IeC {\CYRD }\IeC {\CYRA }\IeC {\CYRN }\IeC {\CYRI }\IeC {\CYRE }}}{23}}
\@writefile{toc}{\contentsline {section}{\IeC {\CYRP }\IeC {\CYRR }\IeC {\CYRI }\IeC {\CYRL }\IeC {\CYRO }\IeC {\CYRZH }\IeC {\CYRE }\IeC {\CYRN }\IeC {\CYRI }\IeC {\CYRE }~\CYRB .~\MakeUppercase  {\IeC {\CYRK }\IeC {\CYRO }\IeC {\CYRP }\IeC {\CYRI }\IeC {\CYRYA } \IeC {\CYRL }\IeC {\CYRS }\IeC {\CYRT }\IeC {\CYRO }\IeC {\CYRV } \IeC {\CYRG }\IeC {\CYRR }\IeC {\CYRA }\IeC {\CYRF }\IeC {\CYRI }\IeC {\CYRCH }\IeC {\CYRE }\IeC {\CYRS }\IeC {\CYRK }\IeC {\CYRO }\IeC {\CYRISHRT } \IeC {\CYRCH }\IeC {\CYRA }\IeC {\CYRS }\IeC {\CYRT }\IeC {\CYRI }}}{33}}
\IfIsDocumentCounterF{xassoccnt@total@totalpages}{\DeclareDocumentCounter{xassoccnt@total@totalpages}}
\setcounter{xassoccnt@total@totalpages}{28}
\IfIsDocumentCounterF{xassoccnt@total@totalfigures}{\DeclareDocumentCounter{xassoccnt@total@totalfigures}}
\setcounter{xassoccnt@total@totalfigures}{1}
\IfIsDocumentCounterF{xassoccnt@total@totaltables}{\DeclareDocumentCounter{xassoccnt@total@totaltables}}
\setcounter{xassoccnt@total@totaltables}{1}
\IfIsDocumentCounterF{xassoccnt@total@totalappendixs}{\DeclareDocumentCounter{xassoccnt@total@totalappendixs}}
\setcounter{xassoccnt@total@totalappendixs}{2}
\expandafter\ifx\csname c@appendixcnt@totc\endcsname\relax\newcounter{appendixcnt@totc}\fi\setcounter{appendixcnt@totc}{2}
\expandafter\ifx\csname c@citnum@totc\endcsname\relax\newcounter{citnum@totc}\fi\setcounter{citnum@totc}{31}
\ttl@finishall
