\relax 
\providecommand\hyper@newdestlabel[2]{}
\catcode `"\active 
\providecommand\HyperFirstAtBeginDocument{\AtBeginDocument}
\HyperFirstAtBeginDocument{\ifx\hyper@anchor\@undefined
\global\let\oldcontentsline\contentsline
\gdef\contentsline#1#2#3#4{\oldcontentsline{#1}{#2}{#3}}
\global\let\oldnewlabel\newlabel
\gdef\newlabel#1#2{\newlabelxx{#1}#2}
\gdef\newlabelxx#1#2#3#4#5#6{\oldnewlabel{#1}{{#2}{#3}}}
\AtEndDocument{\ifx\hyper@anchor\@undefined
\let\contentsline\oldcontentsline
\let\newlabel\oldnewlabel
\fi}
\fi}
\global\let\hyper@last\relax 
\gdef\HyperFirstAtBeginDocument#1{#1}
\providecommand\HyField@AuxAddToFields[1]{}
\providecommand\HyField@AuxAddToCoFields[2]{}
\abx@aux@sortscheme{ynt}
\abx@aux@sortnamekeyscheme{global}
\abx@aux@cite{Fama1965}
\abx@aux@cite{Spengler2012}
\abx@aux@cite{Sun2005}
\abx@aux@cite{Abbink2012}
\@writefile{toc}{\boolfalse {citerequest}\boolfalse {citetracker}\boolfalse {pagetracker}\boolfalse {backtracker}\relax }
\@writefile{lof}{\boolfalse {citerequest}\boolfalse {citetracker}\boolfalse {pagetracker}\boolfalse {backtracker}\relax }
\@writefile{lot}{\boolfalse {citerequest}\boolfalse {citetracker}\boolfalse {pagetracker}\boolfalse {backtracker}\relax }
\select@language{russian}
\@writefile{toc}{\defcounter {refsection}{0}\relax }\@writefile{toc}{\select@language{russian}}
\@writefile{lof}{\defcounter {refsection}{0}\relax }\@writefile{lof}{\select@language{russian}}
\@writefile{lot}{\defcounter {refsection}{0}\relax }\@writefile{lot}{\select@language{russian}}
\@writefile{toc}{\defcounter {refsection}{0}\relax }\@writefile{toc}{\contentsline {section}{\numberline {1}Bib\LaTeX  }{1}{section.1}}
\abx@aux@page{2}{1}
\abx@aux@page{3}{1}
\abx@aux@page{4}{1}
\abx@aux@page{5}{1}
\abx@aux@page{6}{1}
\abx@aux@page{7}{1}
\abx@aux@fnpage{1}{1}
\newlabel{LastPage}{{}{1}{}{page.1}{}}
\xdef\lastpage@lastpage{1}
\xdef\lastpage@lastpageHy{1}
