\boolfalse {citerequest}\boolfalse {citetracker}\boolfalse {pagetracker}\boolfalse {backtracker}\relax 
\defcounter {refsection}{0}\relax 
\select@language {russian}
\defcounter {refsection}{0}\relax 
\contentsline {section}{\numberline {1}Bib\LaTeX }{1}{section.1}
